Notas - Obligatorio
…
Clase 7

Carga de base de datos

library(readxl)
Base <- read_excel("./Obligatorio.xlsx")
Base

## # A tibble: 50,000 x 19
##       ID Apellido Nombre sexo   Edad Localidad Segmento Ingresos
##    <dbl> <chr>    <chr>  <chr> <dbl>     <dbl>    <dbl>    <dbl>
##  1     1 PIAGGIO  MARIA  M         1         1        1   21171.
##  2     1 PIAGGIO  MARIA  M         1         1        1   21171.
##  3     1 PIAGGIO  MARIA  M         1         1        1   21171.
##  4     1 PIAGGIO  MARIA  M         1         1        1   21171.
##  5     2 GAGLIANO ELIZA M         1         2        1   14802.
##  6     2 GAGLIANO ELIZA M         1         2        1   14802.
##  7     2 GAGLIANO ELIZA M         1         2        1   14802.
##  8     2 GAGLIANO ELIZA M         1         2        1   14802.
##  9     3 DURAN    ANA    M         1         1        2   22514.
## 10     3 DURAN    ANA    M         1         1        2   22514.
## #  with 49,990 more rows, and 11 more variables: Fecha <dttm>,
## #   Producto <dbl>, Tasa <dbl>, Prestamo <dbl>, Atraso <dbl>,
## #   Importe_Cuota <dbl>, Saldo_Capital <dbl>, Capital_Pagado <dbl>,
## #   Saldo_Intereses <dbl>, Intereses_Pagos <dbl>, Cuotas_Pagas <dbl>

Cambiar las categorias a texto > factor

Base$Edad=factor(Base$Edad,labels = c('18-30','30-45','45-60','>60'))

Que problema tiene la base?

R: Multiples observaciones en un solo conjunbto

Base1 <- Base %>%
  select(ID,Apellido,Nombre,sexo,Edad,Localidad,Segmento,Ingresos) %>%
  unique %>%
  print

## # A tibble: 10,515 x 8
##       ID Apellido   Nombre    sexo  Edad  Localidad Segmento Ingresos
##    <dbl> <chr>      <chr>     <chr> <fct>     <dbl>    <dbl>    <dbl>
##  1     1 PIAGGIO    MARIA     M     18-30         1        1   21171.
##  2     2 GAGLIANO   ELIZABETH M     18-30         2        1   14802.
##  3     3 DURAN      ANA       M     18-30         1        2   22514.
##  4     4 QUEVEDO    SILVIA    M     18-30         1        2   17779.
##  5     5 CASTRO     ALICIA    M     18-30         1        2   24102.
##  6     6 GIANECHINI CELIA     M     18-30         1        2   20201.
##  7     7 CAMACHO    ADRIANA   M     18-30         1        2   23917.
##  8     8 ASENJO     RITA      M     18-30         1        2   22194.
##  9     9 LARREA     GUALBERTO M     18-30         1        2   19254.
## 10    10 D'ANDRAIA  ROBERTO   M     18-30         1        2   23591.
## #  with 10,505 more rows

Calculo de previsiones

Base2<-Base %>%
  group_by(ID) %>%
  summarize(CR=sum(Saldo_Capital),
            MA=max(Atraso),
            Prev=CR*case_when(MA<=10 ~ 0.005,MA<=30 ~ 0.015,MA<=60 ~ 0.03,MA<=120 ~ 0.17,MA<=180 ~ 0.5,MA>180 ~ 1))
Base2

## # A tibble: 10,515 x 4
##       ID      CR    MA   Prev
##    <dbl>   <dbl> <dbl>  <dbl>
##  1     1 275602.    34  8268.
##  2     2 232758.     0  1164.
##  3     3 184071.     0   920.
##  4     4 164913.    95 28035.
##  5     5 165173.   123 82587.
##  6     6 242384.    64 41205.
##  7     7  50565.    64  8596.
##  8     8 161793.    34  4854.
##  9     9 171477.   123 85738.
## 10    10 203222.     0  1016.
## #  with 10,505 more rows
…
